{
  "samplePayload": {
    "body": "{\n  \"dashboardId\":1,\n  \"evalMatches\":[\n    {\n      \"value\":1,\n      \"metric\":\"Count\",\n      \"tags\":{}\n    }\n  ],\n  \"imageUrl\":\"https://grafana.com/static/assets/img/blog/mixed_styles.png\",\n  \"message\":\"Notification Message\",\n  \"orgId\":1,\n  \"panelId\":2,\n  \"ruleId\":1,\n  \"ruleName\":\"Panel Title alert\",\n  \"ruleUrl\":\"http://localhost:3000/d/hZ7BuVbWz/test-dashboard?fullscreen\\u0026edit\\u0026tab=alert\\u0026panelId=2\\u0026orgId=1\",\n  \"state\":\"alerting\",\n  \"tags\":{\n    \"tag name\":\"tag value\"\n  },\n  \"title\":\"[Alerting] Panel Title alert\"\n}\n",
    "payloadAlerFields": {
      "nodes": [
        {
          "path": ["dashboardId"],
          "label": "Dashboard Id",
          "type": "string"
        },
        {
          "path": ["evalMatches"],
          "label": "Eval Matches",
          "type": "array"
        },
        {
          "path": ["createdAt"],
          "label": "Created At",
          "type": "datetime"
        },
        {
          "path": ["imageUrl"],
          "label": "Image Url",
          "type": "string"
        },
        {
          "path": ["message"],
          "label": "Message",
          "type": "string"
        },
        {
          "path": ["orgId"],
          "label": "Org Id",
          "type": "string"
        },
        {
          "path": ["panelId"],
          "label": "Panel Id",
          "type": "string"
        },
        {
          "path": ["ruleId"],
          "label": "Rule Id",
          "type": "string"
        },
        {
          "path": ["ruleName"],
          "label": "Rule Name",
          "type": "string"
        },
        {
          "path": ["ruleUrl"],
          "label": "Rule Url",
          "type": "string"
        },
        {
          "path": ["state"],
          "label": "State",
          "type": "string"
        },
        {
          "path": ["title"],
          "label": "Title",
          "type": "string"
        },
        {
          "path": ["tags", "tag"],
          "label": "Tags",
          "type": "string"
        }
      ]
    }
  },
  "storedMapping": {
    "nodes": [
      {
        "alertFieldName": "title",
        "payloadAlertPaths": "title",
        "fallbackAlertPaths": "ruleUrl"
      },
      {
        "alertFieldName": "description",
        "payloadAlertPaths": "message"
      },
      {
        "alertFieldName": "hosts",
        "payloadAlertPaths": "evalMatches"
      },
      {
        "alertFieldName": "startTime",
        "payloadAlertPaths": "createdAt"
      }
    ]
  }
}
